1 10 20
100 200 125
201 210 89
900 1000 174
715528 178121 509
586241 361708 470
187430 512695 470
189738 314316 443
663996 472857 509
254446 552138 470
750057 51504 509
545753 395677 470
187972 225006 386
221942 281487 443
853810 707832 525
187839 680655 509
530298 765077 509
913533 442685 525
296936 852654 525
405614 300744 441
728746 962205 525
623030 578889 447
755285 66069 509
509380 439078 444
848151 614960 525
360958 5946 443
532627 424464 470
728252 853622 525
166988 153338 383
559052 47533 470
611058 639198 509
39213 57479 340
998453 153458 525
335078 361681 441
999289 899256 507
47755 438340 449
634302 591880 509
230549 522219 470
139017 882859 525
8109 815310 509
844464 918743 476
376191 632200 509
598679 31580 470
209559 73136 383
131395 464223 449
698291 363152 509
945829 835509 525
94960 171961 383
764123 297464 509
293352 480820 449
630224 248967 509
248560 440526 449
172612 460498 449
790319 160843 509
259668 212815 443
965925 142086 525
377890 851867 525
767841 751416 424
559971 465818 470
78079 782159 509
269247 165333 443
753233 917581 525
577548 560533 421
975056 706761 525
336106 154296 443
893824 55223 525
343784 412169 449
907822 62562 525
96081 108042 354
389422 551704 470
903144 650479 525
622611 147016 470
619259 254994 470
36028 481548 449
192571 287968 443
465387 33104 449
391662 925591 525
839520 326273 525
111228 600496 470
640955 600158 509
412644 380431 449
963494 223010 525
39541 869842 525
160826 218538 386
45709 38685 314
290963 762384 509
872496 538428 525
650411 991603 525
1255 411019 449
502528 390973 449
988673 511918 525
454739 623760 470
598187 907004 525
76612 924495 525
330334 52253 443
397363 567689 470
109065 422759 449
847850 881704 432
549317 662750 509
739914 908658 525
626742 783607 504
628020 974609 525
993877 699315 525
181744 146426 383
543333 942283 525
94476 503668 449
773322 522927 509
698917 696243 367
301789 233909 407
995135 46476 525
254680 763721 509
263345 956137 525
126017 632547 509
488198 232387 449
630121 227529 509
112113 941011 525
107555 97816 354
35778 250471 443
113324 849096 525
132206 148618 375
261758 76190 443
89992 80955 333
410090 99283 449
423182 591356 470
16034 324712 443
349901 22764 443
664511 794124 504
109678 106161 354
369530 250861 441
515652 693172 509
612139 579649 434
843569 909591 445
162449 211483 373
637522 477144 509
222871 546005 470
396761 401673 387
967348 991825 458
626424 52025 509
726933 949686 525
617912 511237 470
546471 99050 470
624683 596828 447
151268 920474 525
96495 74930 351
202761 971447 525
102527 532594 470
447633 389768 449
336914 760045 509
526981 818599 509
353952 510794 449
628020 434284 509
914795 990830 507
898980 109727 525
861599 565578 525
747450 829869 468
631153 319892 509
879683 200114 525
310396 375190 441
521964 279196 470
940983 945636 383
413111 204882 449
386286 240699 441
570989 985402 525
157445 785591 509
773886 604105 509
410219 704632 509
913898 806624 525
778073 231661 509
768725 779686 437
135556 334189 443
314910 305284 384
445287 935578 525
296115 947336 525
684792 118646 509
61716 255123 443
410675 655136 509
336130 865813 525
479836 421584 444
571676 567141 377
634423 496616 509
450078 288913 449
632137 612369 509
49201 704618 509
989992 376696 525
702269 549444 509
467359 642721 509
444599 374787 449
